{
  "prepare_queue": {
    "installed": [],
    "uninstalled": []
  },
  "config_munge": {
    "files": {
      "res/xml/config.xml": {
        "parents": {
          "/*": [
            {
              "xml": "<feature name=\"CallNumber\"><param name=\"android-package\" value=\"com.rohithvaranasi.callnumber.CFCallNumber\" /></feature>",
              "count": 1
            },
            {
              "xml": "<preference name=\"webView\" value=\"org.crosswalk.engine.XWalkWebViewEngine\" />",
              "count": 1
            },
            {
              "xml": "<preference name=\"xwalkVersion\" value=\"22+\" />",
              "count": 1
            },
            {
              "xml": "<preference name=\"xwalkLiteVersion\" value=\"xwalk_core_library_canary:17+\" />",
              "count": 1
            },
            {
              "xml": "<preference name=\"xwalkCommandLine\" value=\"--disable-pull-to-refresh-effect\" />",
              "count": 1
            },
            {
              "xml": "<preference name=\"xwalkMode\" value=\"embedded\" />",
              "count": 1
            },
            {
              "xml": "<preference name=\"xwalkMultipleApk\" value=\"true\" />",
              "count": 1
            },
            {
              "xml": "<preference name=\"android-minSdkVersion\" value=\"16\" />",
              "count": 1
            },
            {
              "xml": "<feature name=\"Device\"><param name=\"android-package\" value=\"org.apache.cordova.device.Device\" /></feature>",
              "count": 1
            },
            {
              "xml": "<feature name=\"InAppBrowser\"><param name=\"android-package\" value=\"org.apache.cordova.inappbrowser.InAppBrowser\" /></feature>",
              "count": 1
            },
            {
              "xml": "<feature name=\"SplashScreen\"><param name=\"android-package\" value=\"org.apache.cordova.splashscreen.SplashScreen\" /><param name=\"onload\" value=\"true\" /></feature>",
              "count": 1
            },
            {
              "xml": "<feature name=\"StatusBar\"><param name=\"android-package\" value=\"org.apache.cordova.statusbar.StatusBar\" /><param name=\"onload\" value=\"true\" /></feature>",
              "count": 1
            },
            {
              "xml": "<feature name=\"Whitelist\"><param name=\"android-package\" value=\"org.apache.cordova.whitelist.WhitelistPlugin\" /><param name=\"onload\" value=\"true\" /></feature>",
              "count": 1
            },
            {
              "xml": "<feature name=\"Toast\"><param name=\"android-package\" value=\"nl.xservices.plugins.Toast\" /></feature>",
              "count": 1
            },
            {
              "xml": "<feature name=\"BarcodeScanner\"><param name=\"android-package\" value=\"com.phonegap.plugins.barcodescanner.BarcodeScanner\" /></feature>",
              "count": 1
            },
            {
              "xml": "<feature name=\"Brightness\"><param name=\"android-package\" value=\"org.apache.cordova.plugin.Brightness.BrightnessPlugin\" /></feature>",
              "count": 1
            },
            {
              "xml": "<feature name=\"Notification\"><param name=\"android-package\" value=\"org.apache.cordova.dialogs.Notification\" /></feature>",
              "count": 1
            },
            {
              "xml": "<feature name=\"AppUpdate\"><param name=\"android-package\" value=\"com.vaenow.appupdate.android.CheckAppUpdate\" /><param name=\"onload\" value=\"true\" /></feature>",
              "count": 1
            }
          ]
        }
      },
      "AndroidManifest.xml": {
        "parents": {
          "/*": [
            {
              "xml": "<uses-permission android:name=\"android.permission.CALL_PHONE\" />",
              "count": 1
            },
            {
              "xml": "<uses-feature android:name=\"android.hardware.telephony\" android:required=\"false\" />",
              "count": 1
            },
            {
              "xml": "<uses-permission android:name=\"android.permission.ACCESS_NETWORK_STATE\" />",
              "count": 1
            },
            {
              "xml": "<uses-permission android:name=\"android.permission.ACCESS_WIFI_STATE\" />",
              "count": 1
            },
            {
              "xml": "<uses-permission android:name=\"android.permission.INTERNET\" />",
              "count": 1
            },
            {
              "xml": "<uses-permission android:name=\"android.permission.WRITE_EXTERNAL_STORAGE\" />",
              "count": 1
            },
            {
              "xml": "<uses-permission android:name=\"android.permission.MOUNT_UNMOUNT_FILESYSTEMS\" />",
              "count": 1
            }
          ],
          "/manifest/application": [
            {
              "xml": "<activity android:clearTaskOnLaunch=\"true\" android:configChanges=\"orientation|keyboardHidden|screenSize\" android:exported=\"false\" android:name=\"com.google.zxing.client.android.CaptureActivity\" android:theme=\"@android:style/Theme.NoTitleBar.Fullscreen\" android:windowSoftInputMode=\"stateAlwaysHidden\" />",
              "count": 1
            },
            {
              "xml": "<activity android:label=\"Share\" android:name=\"com.google.zxing.client.android.encode.EncodeActivity\" />",
              "count": 1
            },
            {
              "xml": "<provider android:authorities=\"${applicationId}.appupdate.provider\" android:exported=\"false\" android:grantUriPermissions=\"true\" android:name=\"com.vaenow.appupdate.android.GenericFileProvider\"><meta-data android:name=\"android.support.FILE_PROVIDER_PATHS\" android:resource=\"@xml/appupdate_paths\" /></provider>",
              "count": 1
            }
          ],
          "/manifest": [
            {
              "xml": "<uses-permission android:name=\"android.permission.CAMERA\" />",
              "count": 1
            },
            {
              "xml": "<uses-permission android:name=\"android.permission.FLASHLIGHT\" />",
              "count": 1
            },
            {
              "xml": "<uses-feature android:name=\"android.hardware.camera\" android:required=\"true\" />",
              "count": 1
            }
          ]
        }
      },
      "config.xml": {
        "parents": {
          "/*": [
            {
              "xml": "<feature name=\"Keyboard\"><param name=\"android-package\" onload=\"true\" value=\"io.ionic.keyboard.IonicKeyboard\" /></feature>",
              "count": 1
            },
            {
              "xml": "<feature name=\"RareloopAppVersion\"><param name=\"android-package\" value=\"com.rareloop.cordova.appversion.RareloopAppVersion\" /></feature>",
              "count": 1
            },
            {
              "xml": "<feature name=\"IonicCordovaCommon\"><param name=\"android-package\" onload=\"true\" value=\"com.ionicframework.common.IonicCordovaCommon\" /></feature>",
              "count": 1
            },
            {
              "xml": "<feature name=\"IonicDeploy\"><param name=\"android-package\" value=\"com.ionicframework.deploy.IonicDeploy\" /><param name=\"onload\" value=\"true\" /></feature>",
              "count": 1
            }
          ]
        }
      },
      "res/values/strings.xml": {
        "parents": {
          "/resources": [
            {
              "xml": "<string name=\"ionic_app_id\">23ced87a</string>",
              "count": 1
            },
            {
              "xml": "<string name=\"ionic_debug\">true</string>",
              "count": 1
            },
            {
              "xml": "<string name=\"ionic_channel_name\">Production</string>",
              "count": 1
            },
            {
              "xml": "<string name=\"ionic_update_api\">https://api.ionicjs.com</string>",
              "count": 1
            },
            {
              "xml": "<string name=\"ionic_update_method\">auto</string>",
              "count": 1
            },
            {
              "xml": "<string name=\"ionic_max_versions\">2</string>",
              "count": 1
            }
          ]
        }
      }
    }
  },
  "installed_plugins": {
    "call-number": {
      "PACKAGE_NAME": "io.ionic.conferenceapp"
    },
    "cordova-plugin-crosswalk-webview": {
      "XWALK_VERSION": "22+",
      "XWALK_LITEVERSION": "xwalk_core_library_canary:17+",
      "XWALK_COMMANDLINE": "--disable-pull-to-refresh-effect",
      "XWALK_MODE": "embedded",
      "XWALK_MULTIPLEAPK": "true",
      "PACKAGE_NAME": "io.ionic.conferenceapp"
    },
    "cordova-plugin-device": {
      "PACKAGE_NAME": "io.ionic.conferenceapp"
    },
    "cordova-plugin-inappbrowser": {
      "PACKAGE_NAME": "io.ionic.conferenceapp"
    },
    "cordova-plugin-ionic-keyboard": {
      "PACKAGE_NAME": "io.ionic.conferenceapp"
    },
    "cordova-plugin-ionic-webview": {
      "PACKAGE_NAME": "io.ionic.conferenceapp"
    },
    "cordova-plugin-splashscreen": {
      "PACKAGE_NAME": "io.ionic.conferenceapp"
    },
    "cordova-plugin-statusbar": {
      "PACKAGE_NAME": "io.ionic.conferenceapp"
    },
    "cordova-plugin-whitelist": {
      "PACKAGE_NAME": "io.ionic.conferenceapp"
    },
    "cordova-plugin-x-toast": {
      "PACKAGE_NAME": "io.ionic.conferenceapp"
    },
    "phonegap-plugin-barcodescanner": {
      "ANDROID_SUPPORT_V4_VERSION": "27.+",
      "PACKAGE_NAME": "io.ionic.conferenceapp"
    },
    "cordova-plugin-brightness": {
      "PACKAGE_NAME": "io.ionic.conferenceapp"
    },
    "cordova-plugin-dialogs": {
      "PACKAGE_NAME": "io.ionic.conferenceapp"
    },
    "cordova-plugin-appversion": {
      "PACKAGE_NAME": "io.ionic.conferenceapp"
    },
    "cordova-plugin-app-update": {
      "PACKAGE_NAME": "io.ionic.conferenceapp"
    },
    "cordova-plugin-ionic": {
      "APP_ID": "23ced87a",
      "CHANNEL_NAME": "Production",
      "WARN_DEBUG": "true",
      "UPDATE_API": "https://api.ionicjs.com",
      "UPDATE_METHOD": "auto",
      "MAX_STORE": "2",
      "PACKAGE_NAME": "io.ionic.conferenceapp"
    }
  },
  "dependent_plugins": {},
  "modules": [
    {
      "id": "call-number.CallNumber",
      "file": "plugins/call-number/www/CallNumber.js",
      "pluginId": "call-number",
      "clobbers": [
        "call"
      ]
    },
    {
      "id": "cordova-plugin-device.device",
      "file": "plugins/cordova-plugin-device/www/device.js",
      "pluginId": "cordova-plugin-device",
      "clobbers": [
        "device"
      ]
    },
    {
      "id": "cordova-plugin-inappbrowser.inappbrowser",
      "file": "plugins/cordova-plugin-inappbrowser/www/inappbrowser.js",
      "pluginId": "cordova-plugin-inappbrowser",
      "clobbers": [
        "cordova.InAppBrowser.open",
        "window.open"
      ]
    },
    {
      "id": "cordova-plugin-ionic-keyboard.keyboard",
      "file": "plugins/cordova-plugin-ionic-keyboard/www/android/keyboard.js",
      "pluginId": "cordova-plugin-ionic-keyboard",
      "clobbers": [
        "window.Keyboard"
      ]
    },
    {
      "id": "cordova-plugin-splashscreen.SplashScreen",
      "file": "plugins/cordova-plugin-splashscreen/www/splashscreen.js",
      "pluginId": "cordova-plugin-splashscreen",
      "clobbers": [
        "navigator.splashscreen"
      ]
    },
    {
      "id": "cordova-plugin-statusbar.statusbar",
      "file": "plugins/cordova-plugin-statusbar/www/statusbar.js",
      "pluginId": "cordova-plugin-statusbar",
      "clobbers": [
        "window.StatusBar"
      ]
    },
    {
      "id": "cordova-plugin-x-toast.Toast",
      "file": "plugins/cordova-plugin-x-toast/www/Toast.js",
      "pluginId": "cordova-plugin-x-toast",
      "clobbers": [
        "window.plugins.toast"
      ]
    },
    {
      "id": "phonegap-plugin-barcodescanner.BarcodeScanner",
      "file": "plugins/phonegap-plugin-barcodescanner/www/barcodescanner.js",
      "pluginId": "phonegap-plugin-barcodescanner",
      "clobbers": [
        "cordova.plugins.barcodeScanner"
      ]
    },
    {
      "id": "cordova-plugin-brightness.Brightness",
      "file": "plugins/cordova-plugin-brightness/www/brightness.js",
      "pluginId": "cordova-plugin-brightness",
      "clobbers": [
        "cordova.plugins.brightness"
      ]
    },
    {
      "id": "cordova-plugin-dialogs.notification",
      "file": "plugins/cordova-plugin-dialogs/www/notification.js",
      "pluginId": "cordova-plugin-dialogs",
      "merges": [
        "navigator.notification"
      ]
    },
    {
      "id": "cordova-plugin-dialogs.notification_android",
      "file": "plugins/cordova-plugin-dialogs/www/android/notification.js",
      "pluginId": "cordova-plugin-dialogs",
      "merges": [
        "navigator.notification"
      ]
    },
    {
      "id": "cordova-plugin-appversion.RareloopAppVersion",
      "file": "plugins/cordova-plugin-appversion/www/app-version.js",
      "pluginId": "cordova-plugin-appversion",
      "clobbers": [
        "AppVersion"
      ]
    },
    {
      "id": "cordova-plugin-app-update.AppUpdate",
      "file": "plugins/cordova-plugin-app-update/www/AppUpdate.js",
      "pluginId": "cordova-plugin-app-update",
      "clobbers": [
        "AppUpdate"
      ]
    },
    {
      "id": "cordova-plugin-ionic.common",
      "file": "plugins/cordova-plugin-ionic/www/common.js",
      "pluginId": "cordova-plugin-ionic",
      "clobbers": [
        "IonicCordova"
      ],
      "runs": true
    }
  ],
  "plugin_metadata": {
    "call-number": "0.0.2",
    "cordova-plugin-crosswalk-webview": "2.4.0",
    "cordova-plugin-device": "1.1.7",
    "cordova-plugin-inappbrowser": "1.7.2",
    "cordova-plugin-ionic-keyboard": "2.0.5",
    "cordova-plugin-ionic-webview": "1.1.16",
    "cordova-plugin-splashscreen": "4.1.0",
    "cordova-plugin-statusbar": "2.4.1",
    "cordova-plugin-whitelist": "1.3.3",
    "cordova-plugin-x-toast": "2.6.2",
    "phonegap-plugin-barcodescanner": "7.1.0",
    "cordova-plugin-brightness": "0.1.5",
    "cordova-plugin-dialogs": "2.0.1",
    "cordova-plugin-appversion": "1.0.0",
    "cordova-plugin-app-update": "1.6.0",
    "cordova-plugin-ionic": "3.1.3"
  }
}